"Samsung","A1 TV SERVICES","2111832","C430","SEUKASC10","samsunguk10","GB","0","2111832","seuk2111832","UK901199","","1"
"Noise","A1 TV SERVICES","4800501","","","","","0","","","","","0"
"Samsung","ANCRUM","2113556","C430","SEUKASC11","samsunguk11","GB","0","2113556","seuk2113556","UK940083","","1"
"Sony","ANCRUM","12038529","","","","UK","0","","","","North KB","0"
"Noise","ANCRUM","4800502","","","","","0","","","","","0"
"Sony","AUDIO VIDEO SERVICE","12035545","","","","UK","0","","","","North KB","0"
"Noise","AUDIO VIDEO SERVICE","4800505","","","","","0","","","","","0"
"Sony","AUDIOVISION","12039280","","","","UK","0","","","","West SS","0"
"Noise","AUDIOVISION","4800506","","","","","0","","","","","0"
"Samsung","AUDIOVISION","2113645","C430","SEUKASC32","samsunguk32","GB","0","2113645","seuk2113645","UK940121","","1"
"Samsung","AV Service Centre","6206204","C430","SEUKASC49","samsunguk49","IE","0","","","","","0"
"Noise","BABBER ELECTRONICS SERVICE CENTRE","4800566","","","","","0","","","","","0"
"Samsung","B.A.V.S.","6289249","C430","SEUKASC51","samsunguk51","IE","0","6289249","seuk6289249","UK08050164","","1"
"Sony","B.A.V.S.","12053791","","","","IE","0","","","","Ireland SS","0"
"Sony","BIRMINGHAM SPECIALISED SERVICES","12031378","","","","UK","0","","","","West SS","0"
"Noise","BIRMINGHAM SPECIALISED SERVICES","4800507","","","","","0","","","","","0"
"Samsung","BIRMINGHAM SPECIALISED SERVICES","2111925","C430","SEUKASC13","samsunguk13","GB","0","2111925","seuk2111925","UK901245","","1"
"Sony","BUDGET TV","12034721","","","","UK","0","","","","North KB","0"
"Noise","BUDGET TV","4800508","","","","","0","","","","","0"
"Samsung","CAMTRONICS","2111560","C430","SEUKASC14","samsunguk14","GB","0","2111560","seuk2111560","UK901070","","1"
"Noise","CAMTRONICS","4800509","","","","","0","","","","","0"
"Noise","Cannan & Brown","4800554","","","","","1","","","","","0"
"Samsung","Cannan & Brown","2113564","C430","SEUKASC70","samsunguk70","GB","0","2113564","seuk2113564","2113564","","1"
"Samsung","COLOURVISION COLOURTRONICS LTD","2110554","C430","SEUKASC69","samsunguk69","GB","0","2110554","seuk2110554","2110554","","0"
"Noise","CORNWALL TV","4800567","","","","","0","","","","","0"
"Sony","CORNWALL TV","12081471","","","","","0","","","","S","0"
"Samsung","CORNWALL TV","4214036","C430","SEUKASC71","crtl4214","GB","0","4214036","crtl4214","4214036","","1"
"Sony","CORRECT TV","12054266","","","","UK","0","","","","North KB","0"
"Noise","CORRECT TV","4800510","","","","","0","","","","","0"
"Sony","CRAIGAVON TV","12038601","","","","IE","0","","","","Ireland SS","0"
"Samsung","CRAIGAVON TV","2113585","C430","SEUKASC15","samsunguk15","GB","0","2113585","seuk2113585","UK940097","","1"
"Noise","CRAIGAVON TV","4800511","","","","","0","","","","","0"
"Samsung","D & J HENRY LTD","2113466","C430","SEUKASC34","","GB","0","2113466","seuk2113466","UK940022","","1"
"Noise","D & J HENRY LTD","4800512","","","","","0","","","","","0"
"Sony","D & J HENRY LTD","12036416","","","","UK","0","","","","","0"
"Sony","D K AUDIO VISUAL SERVICES HORLEY","12033554","","","","","0","","","","EAST ST","0"
"Noise","D K AUDIO VISUAL SERVICES HORLEY","4800564","","","","","0","","","","","0"
"Sony","D K AUDIO VISUAL SERVICES MITCHAM","12059725","","","","UK","0","","","","EAST ST","0"
"Noise","D K AUDIO VISUAL SERVICES MITCHAM","4800513","","","","","0","","","","","0"
"Samsung","DBS Service Centre (Newcastle)","2113664","C430","SEUKASC33","samsunguk33","GB","0","2113664","seuk2113664","UK940134","","1"
"Sony","DBS Service Centre (Newcastle)","12065163","","","","UK","0","","","","North KB","0"
"Noise","DBS Service Centre (Newcastle)","4800514","","","","","0","","","","","0"
"Sony","DBS YORK","12036589","","","","UK","0","","","","North KB","0"
"Samsung","DBS YORK","2113536","C430","SEUKASC35","samsunguk35","GB","0","2113536","seuk2113536","UK940070","","1"
"Noise","DBS YORK","4800515","","","","","0","","","","","0"
"Samsung","D K AUDIO VISUAL SERVICES MITCHAM","2113572","C430","","","GB","0","","","UK940092","","0"
"Samsung","DSC","6018942","C430","SEUKASC16","samsunguk16","GB","0","6018942","seuk6018942","UK900317","","1"
"Sony","DSC","12032379","","","","UK","0","","","","North KB","0"
"Noise","DSC","4800516","","","","","0","","","","","0"
"Samsung","DUNCANS TV","2111039","C430","SEUKASC17","samsunguk17","GB","0","2111039","seuk2111039","UK900782","","1"
"Sony","DUNCANS TV","12057042","","","","UK","0","","","","North KB","0"
"Noise","DUNCANS TV","4800517","","","","","0","","","","","0"
"Samsung","Electronic Services","6168991","C430","SEUKASC18","samsunguk18","GB","0","6168991","seuk6168991","UK06090043","","1"
"Noise","Electronic Services","4800518","","","","","0","","","","","0"
"Noise","FORTH ELECTRONIC SERVICES LTD","4800520","","","","","0","","","","","0"
"Sony","FORTH ELECTRONIC SERVICES LTD","12039082","","","","UK","0","","","","East ST","0"
"Samsung","GENSERVE","2112101","C430","SEUKASC20","samsunguk20","GB","0","2112101","seuk2112101","UK901447","","1"
"Noise","GENSERVE","4800521","","","","","0","","","","","0"
"Sony","GOGGLEBOX TV","12063580","","","","UK","0","","","","West SS","0"
"Samsung","GOGGLEBOX TV","2113593","C430","SEUKASC21","samsunguk21","GB","0","2113593","seuk2113593","UK940100","","1"
"Samsung","GWYNNE TV","2113540","C430","SEUKASC22","samsunguk22","GB","0","2113540","seuk2113540","UK940073","","1"
"Sony","GWYNNE TV","12033080","","","","UK","0","","","","EAST ST","0"
"Noise","GWYNNE TV","4800523","","","","","0","","","","","0"
"Sony","H & H VIDEO","12053091","","","","UK","0","","","","North KB","0"
"Samsung","H & H VIDEO","2113546","C430","SEUKASC23","samsunguk23","GB","0","2113546","seuk2113546","UK940078","","1"
"Noise","H & H VIDEO","4800524","","","","","0","","","","","0"
"Sony","HEREFORD SERVICE CENTRE","12072415","","","","UK","0","","","","West SS","0"
"Noise","HEREFORD SERVICE CENTRE","4800525","","","","","1","","","","","0"
"Samsung","Hitech","2113472","C430","SEUKASC24","samsunguk24","GB","0","2113472","seuk2113472","UK940025","","1"
"Noise","Hitech","4800526","","","","","0","","","","","0"
"Sony","Hitech","12033436","","","","UK","0","","","","East ST","0"
"Noise","HYDE PARK CORNER","4800563","","","","","1","","","","","0"
"Samsung","ICTV FARNBOROUGH","2113474","C430","SEUKASC25","samsunguk25","GB","0","2113474","seuk2113474","UK940026","","1"
"Sony","ICTV FARNBOROUGH","12035867","","","","UK","0","","","","WEST SS","0"
"Noise","ICTV FARNBOROUGH","4800527","","","","","0","","","","","0"
"Samsung","ICTV SOUTHERN","2113595","C430","SEUKASC26","samsunguk26","GB","0","2113595","seuk2113595","UK940101","","1"
"Sony","ICTV SOUTHERN","12039257","","","","UK","0","","","","WEST SS","1"
"Noise","ICTV SOUTHERN","4800528","","","","","0","","","","","0"
"Samsung","INTEGRATED SERVICES","2113476","C430","SEUKASC27","samsunguk27","GB","0","2113476","seuk2113476","UK940027","","1"
"Sony","INTEGRATED SERVICES","12033375","","","","UK","0","","","","East ST","0"
"Noise","INTEGRATED SERVICES","4800529","","","","","0","","","","","0"
"Samsung","JF ASSOCIATES","2113425","C430","SEUKASC38","samsunguk38","GB","0","2113425","seuk2113425","UK940001","","1"
"Sony","JF ASSOCIATES","12074110","","","","UK","0","","","","East ST","0"
"Noise","JF ASSOCIATES","4800530","","","","","0","","","","","0"
"Sony","Keens Services Limited","12033895","","","","UK","0","","","","East ST","0"
"Noise","Keens Services Limited","4800531","","","","","0","","","","","0"
"Sony","KELTEC","12037783","","","","IE","0","","","","Ireland SS","0"
"Samsung","KELTEC","6206200","C430","SEUKASC47","samsunguk47","IE","0","6206200","seuk6206200","UK07030088","","1"
"Sony","LAWLESS BROTHERS","12055500","","","","IE","0","","","","Ireland SS","0"
"Samsung","LAWLESS BROTHERS","2113835","C430","SEUKASC50","samsunguk50","IE","0","2113835","seuk2113835","UK08060182","","1"
"Samsung","MARTIN DAWES WINSFORD","3331278","C430","SEUKASC64","","GB","0","3331278","","3331278","","0"
"Noise","MARTIN DAWES WINSFORD","4800562","","","","","0","","","","","0"
"Sony","MCMICHAEL BROS","12038781","","","","UK","0","","","","West SS","0"
"Noise","MCMICHAEL BROS","4800532","","","","","1","","","","","0"
"Sony","MF SERVICES","12076226","","","","IE","0","","","","Ireland SS","0"
"Samsung","MF Services","6075766","C430","SEUKASC48","","IE","0","","","","","0"
"Sony","MTV SERVICE","12036140","","","","UK","0","","","","North KB","0"
"Samsung","MTV SERVICE","2108077","C430","SEUKASC28","samsunguk28","GB","0","2108077","seuk2108077","UK806750","","1"
"Noise","MTV SERVICE","4800533","","","","","0","","","","","0"
"Sony","MWES","12033923","","","","UK","0","","","","NORTH KB","0"
"Samsung","MWES","2111535","","","","GB","0","","","","","0"
"Noise","MWES","4800534","","","","","0","","","","","0"
"Sony","NORTH WEST APPLIANCE REPAIRS","12054652","","","","UK","0","","","","North KB","0"
"Noise","NORTH WEST APPLIANCE REPAIRS","4800535","","","","","0","","","","","0"
"Noise","NORTHERN TRADERS","4800565","","","","","0","","","","","0"
"Sony","OCONNORS SERVICE CENTRE","12038437","","","","IE","0","","","","Ireland SS","0"
"Samsung","OCONNORS SERVICE CENTRE","2113953","C430","SEUKASC45","","IE","0","","","","","0"
"Sony","PENCOED SERVICE CENTRE","12072522","","","","UK","0","","","","West SS","0"
"Sony","PETER JONES ELECTRICAL","12037167","","","","UK","0","","","","West SS","0"
"Samsung","Peterborough Video Services","2113069","C430","SEUKASC29","samsunguk29","GB","0","2113069","seuk2113069","UK930006","","1"
"Noise","Peterborough Video Services","4800538","","","","","0","","","","","0"
"Sony","Peterborough Video Services","12033007","","","","UK","0","","","","East ST","0"
"Noise","REPAIR GUYS","4800503","","","","","0","","","","","0"
"Sony","REPAIR GUYS","12073316","","","","","0","","","","","0"
"Samsung","REPAIR GUYS","2113568","C430","SEUKASC53","samsunguk53","GB","0","2113568","seuk2113568","UK940090","","1"
"Sony","RETEL","12034249","","","","UK","0","","","","North KB","0"
"Noise","RETEL","4800539","","","","","0","","","","","0"
"Sony","SANDS TV SERVICES LTD","12056984","","","","UK","0","","","","East ST","0"
"Noise","SANDS TV SERVICES LTD","4800540","","","","","0","","","","","0"
"Noise","SERVICECARE SUPPORT SERVICES LTD","4800557","","","","","1","","","","","0"
"Samsung","Sontec (Electronics) Ltd","2111338","C430","SEUKASC61","samsunguk61","GB","0","2111338","","","","1"
"Noise","Sontec (Electronics) Ltd","4800553","","","","","1","","","","","0"
"Samsung","SOUND AND VISION","6233233","C430","SEUKASC41","samsunguk41","GB","0","6233233","seuk6233233","UK07080102","","1"
"Noise","SOUND AND VISION","4800541","","","","","0","","","","","0"
"Sony","SOUND AND VISION","12033306","","","","","0","","","","","0"
"Sony","SOUTH ESK ELECTRONICS","12068186","","","","UK","0","","","","North KB","0"
"Noise","SOUTH ESK ELECTRONICS","4800542","","","","","0","","","","","0"
"Sony","Startec","12034527","","","","UK","0","","","","West SS","0"
"Noise","Startec","4800543","","","","","0","","","","","0"
"Sony","SVS POOLE","12036558","","","","UK","0","","","","West SS","0"
"Samsung","SVS POOLE","2110531","C430","SEUKASC30","samsunguk30","GB","0","2110531","seuk2110531","UK900457","","1"
"Noise","SVS POOLE","4800544","","","","","0","","","","","0"
"Sony","T.V.A.E.","12037726","","","","IE","0","","","","Ireland SS","0"
"Sony","TELEFAULTS","12036622","","","","UK","0","","","","North KB","0"
"Noise","TELEFAULTS","4800545","","","","","0","","","","","0"
"Sony","TELERADIO EXPERT SERVICE","12074698","","","","UK","0","","","","West SS","0"
"Noise","TELERADIO EXPERT SERVICE","4800546","","","","","0","","","","","0"
"Sony","TVRS","12037462","","","","UK","0","","","","North KB","0"
"Noise","TVRS","4800547","","","","","0","","","","","0"
"Sony","ULTRATEC","12053785","","","","UK","0","","","","West SS","0"
"Samsung","VISUAL FX SERVICE CENTRE","2111573","C430","SEUKASC31","samsunguk31","GB","0","2111573","seuk2111573","UK901077","","1"
"Sony","VISUAL FX SERVICE CENTRE","12036083","","","","UK","0","","","","EAST ST","0"
"Noise","VISUAL FX SERVICE CENTRE","4800549","","","","","0","","","","","0"
"Samsung","Visual Service Centre (Derby)","6079948","C430","SEUKASC56","samsunguk56","GB","0","6079948","seuk6079948","UK901518","","1"
"Noise","Visual Service Centre (Derby)","4800550","","","","","0","","","","","0"
"Samsung","Visual Service Centre (Manchester)","6247011","C430","SEUKASC55","samsunguk55","GB","0","6247011","seuk6247011","UK07100109","","1"
"Noise","Visual Service Centre (Manchester)","4800551","","","","","0","","","","","0"
"Sony","YORKSHIRE MULTIMEDIA SERVICE","12072783","","","","UK","0","","","","North KB","0"
"Noise","YORKSHIRE MULTIMEDIA SERVICE","4800552","","","","","0","","","","","0"
"Samsung","MASTERFIX","6265731","C430","SEUKASC73","mFTda2731","GB","0","6265731","mFTda2731","6265731","","1"
